[{"page":1,"pages":2,"per_page":50,"total":61,"sourceid":"2","lastupdated":"2020-10-15"},[{"indicator":{"id":"GC.DOD.TOTL.GD.ZS","value":"Central government debt, total (% of GDP)"},"country":{"id":"CZ","value":"Czech Republic"},"countryiso3code":"CZE","date":"2020","value":null,"unit":"","obs_status":"","decimal":1},{"indicator":{"id":"GC.DOD.TOTL.GD.ZS","value":"Central government debt, total (% of GDP)"},"country":{"id":"CZ","value":"Czech Republic"},"countryiso3code":"CZE","date":"2019","value":null,"unit":"","obs_status":"","decimal":1},{"indicator":{"id":"GC.DOD.TOTL.GD.ZS","value":"Central government debt, total (% of GDP)"},"country":{"id":"CZ","value":"Czech Republic"},"countryiso3code":"CZE","date":"2018","value":null,"unit":"","obs_status":"","decimal":1},{"indicator":{"id":"GC.DOD.TOTL.GD.ZS","value":"Central government debt, total (% of GDP)"},"country":{"id":"CZ","value":"Czech Republic"},"countryiso3code":"CZE","date":"2017","value":null,"unit":"","obs_status":"","decimal":1},{"indicator":{"id":"GC.DOD.TOTL.GD.ZS","value":"Central government debt, total (% of GDP)"},"country":{"id":"CZ","value":"Czech Republic"},"countryiso3code":"CZE","date":"2016","value":null,"unit":"","obs_status":"","decimal":1},{"indicator":{"id":"GC.DOD.TOTL.GD.ZS","value":"Central government debt, total (% of GDP)"},"country":{"id":"CZ","value":"Czech Republic"},"countryiso3code":"CZE","date":"2015","value":null,"unit":"","obs_status":"","decimal":1},{"indicator":{"id":"GC.DOD.TOTL.GD.ZS","value":"Central government debt, total (% of GDP)"},"country":{"id":"CZ","value":"Czech Republic"},"countryiso3code":"CZE","date":"2014","value":null,"unit":"","obs_status":"","decimal":1},{"indicator":{"id":"GC.DOD.TOTL.GD.ZS","value":"Central government debt, total (% of GDP)"},"country":{"id":"CZ","value":"Czech Republic"},"countryiso3code":"CZE","date":"2013","value":null,"unit":"","obs_status":"","decimal":1},{"indicator":{"id":"GC.DOD.TOTL.GD.ZS","value":"Central government debt, total (% of GDP)"},"country":{"id":"CZ","value":"Czech Republic"},"countryiso3code":"CZE","date":"2012","value":null,"unit":"","obs_status":"","decimal":1},{"indicator":{"id":"GC.DOD.TOTL.GD.ZS","value":"Central government debt, total (% of GDP)"},"country":{"id":"CZ","value":"Czech Republic"},"countryiso3code":"CZE","date":"2011","value":null,"unit":"","obs_status":"","decimal":1},{"indicator":{"id":"GC.DOD.TOTL.GD.ZS","value":"Central government debt, total (% of GDP)"},"country":{"id":"CZ","value":"Czech Republic"},"countryiso3code":"CZE","date":"2010","value":null,"unit":"","obs_status":"","decimal":1},{"indicator":{"id":"GC.DOD.TOTL.GD.ZS","value":"Central government debt, total (% of GDP)"},"country":{"id":"CZ","value":"Czech Republic"},"countryiso3code":"CZE","date":"2009","value":null,"unit":"","obs_status":"","decimal":1},{"indicator":{"id":"GC.DOD.TOTL.GD.ZS","value":"Central government debt, total (% of GDP)"},"country":{"id":"CZ","value":"Czech Republic"},"countryiso3code":"CZE","date":"2008","value":null,"unit":"","obs_status":"","decimal":1},{"indicator":{"id":"GC.DOD.TOTL.GD.ZS","value":"Central government debt, total (% of GDP)"},"country":{"id":"CZ","value":"Czech Republic"},"countryiso3code":"CZE","date":"2007","value":null,"unit":"","obs_status":"","decimal":1},{"indicator":{"id":"GC.DOD.TOTL.GD.ZS","value":"Central government debt, total (% of GDP)"},"country":{"id":"CZ","value":"Czech Republic"},"countryiso3code":"CZE","date":"2006","value":null,"unit":"","obs_status":"","decimal":1},{"indicator":{"id":"GC.DOD.TOTL.GD.ZS","value":"Central government debt, total (% of GDP)"},"country":{"id":"CZ","value":"Czech Republic"},"countryiso3code":"CZE","date":"2005","value":null,"unit":"","obs_status":"","decimal":1},{"indicator":{"id":"GC.DOD.TOTL.GD.ZS","value":"Central government debt, total (% of GDP)"},"country":{"id":"CZ","value":"Czech Republic"},"countryiso3code":"CZE","date":"2004","value":null,"unit":"","obs_status":"","decimal":1},{"indicator":{"id":"GC.DOD.TOTL.GD.ZS","value":"Central government debt, total (% of GDP)"},"country":{"id":"CZ","value":"Czech Republic"},"countryiso3code":"CZE","date":"2003","value":null,"unit":"","obs_status":"","decimal":1},{"indicator":{"id":"GC.DOD.TOTL.GD.ZS","value":"Central government debt, total (% of GDP)"},"country":{"id":"CZ","value":"Czech Republic"},"countryiso3code":"CZE","date":"2002","value":null,"unit":"","obs_status":"","decimal":1},{"indicator":{"id":"GC.DOD.TOTL.GD.ZS","value":"Central government debt, total (% of GDP)"},"country":{"id":"CZ","value":"Czech Republic"},"countryiso3code":"CZE","date":"2001","value":null,"unit":"","obs_status":"","decimal":1},{"indicator":{"id":"GC.DOD.TOTL.GD.ZS","value":"Central government debt, total (% of GDP)"},"country":{"id":"CZ","value":"Czech Republic"},"countryiso3code":"CZE","date":"2000","value":null,"unit":"","obs_status":"","decimal":1},{"indicator":{"id":"GC.DOD.TOTL.GD.ZS","value":"Central government debt, total (% of GDP)"},"country":{"id":"CZ","value":"Czech Republic"},"countryiso3code":"CZE","date":"1999","value":null,"unit":"","obs_status":"","decimal":1},{"indicator":{"id":"GC.DOD.TOTL.GD.ZS","value":"Central government debt, total (% of GDP)"},"country":{"id":"CZ","value":"Czech Republic"},"countryiso3code":"CZE","date":"1998","value":null,"unit":"","obs_status":"","decimal":1},{"indicator":{"id":"GC.DOD.TOTL.GD.ZS","value":"Central government debt, total (% of GDP)"},"country":{"id":"CZ","value":"Czech Republic"},"countryiso3code":"CZE","date":"1997","value":null,"unit":"","obs_status":"","decimal":1},{"indicator":{"id":"GC.DOD.TOTL.GD.ZS","value":"Central government debt, total (% of GDP)"},"country":{"id":"CZ","value":"Czech Republic"},"countryiso3code":"CZE","date":"1996","value":null,"unit":"","obs_status":"","decimal":1},{"indicator":{"id":"GC.DOD.TOTL.GD.ZS","value":"Central government debt, total (% of GDP)"},"country":{"id":"CZ","value":"Czech Republic"},"countryiso3code":"CZE","date":"1995","value":null,"unit":"","obs_status":"","decimal":1},{"indicator":{"id":"GC.DOD.TOTL.GD.ZS","value":"Central government debt, total (% of GDP)"},"country":{"id":"CZ","value":"Czech Republic"},"countryiso3code":"CZE","date":"1994","value":14.1839789649322,"unit":"","obs_status":"","decimal":1},{"indicator":{"id":"GC.DOD.TOTL.GD.ZS","value":"Central government debt, total (% of GDP)"},"country":{"id":"CZ","value":"Czech Republic"},"countryiso3code":"CZE","date":"1993","value":15.9393744992717,"unit":"","obs_status":"","decimal":1},{"indicator":{"id":"GC.DOD.TOTL.GD.ZS","value":"Central government debt, total (% of GDP)"},"country":{"id":"CZ","value":"Czech Republic"},"countryiso3code":"CZE","date":"1992","value":null,"unit":"","obs_status":"","decimal":1},{"indicator":{"id":"GC.DOD.TOTL.GD.ZS","value":"Central government debt, total (% of GDP)"},"country":{"id":"CZ","value":"Czech Republic"},"countryiso3code":"CZE","date":"1991","value":null,"unit":"","obs_status":"","decimal":1},{"indicator":{"id":"GC.DOD.TOTL.GD.ZS","value":"Central government debt, total (% of GDP)"},"country":{"id":"CZ","value":"Czech Republic"},"countryiso3code":"CZE","date":"1990","value":null,"unit":"","obs_status":"","decimal":1},{"indicator":{"id":"GC.DOD.TOTL.GD.ZS","value":"Central government debt, total (% of GDP)"},"country":{"id":"CZ","value":"Czech Republic"},"countryiso3code":"CZE","date":"1989","value":null,"unit":"","obs_status":"","decimal":1},{"indicator":{"id":"GC.DOD.TOTL.GD.ZS","value":"Central government debt, total (% of GDP)"},"country":{"id":"CZ","value":"Czech Republic"},"countryiso3code":"CZE","date":"1988","value":null,"unit":"","obs_status":"","decimal":1},{"indicator":{"id":"GC.DOD.TOTL.GD.ZS","value":"Central government debt, total (% of GDP)"},"country":{"id":"CZ","value":"Czech Republic"},"countryiso3code":"CZE","date":"1987","value":null,"unit":"","obs_status":"","decimal":1},{"indicator":{"id":"GC.DOD.TOTL.GD.ZS","value":"Central government debt, total (% of GDP)"},"country":{"id":"CZ","value":"Czech Republic"},"countryiso3code":"CZE","date":"1986","value":null,"unit":"","obs_status":"","decimal":1},{"indicator":{"id":"GC.DOD.TOTL.GD.ZS","value":"Central government debt, total (% of GDP)"},"country":{"id":"CZ","value":"Czech Republic"},"countryiso3code":"CZE","date":"1985","value":null,"unit":"","obs_status":"","decimal":1},{"indicator":{"id":"GC.DOD.TOTL.GD.ZS","value":"Central government debt, total (% of GDP)"},"country":{"id":"CZ","value":"Czech Republic"},"countryiso3code":"CZE","date":"1984","value":null,"unit":"","obs_status":"","decimal":1},{"indicator":{"id":"GC.DOD.TOTL.GD.ZS","value":"Central government debt, total (% of GDP)"},"country":{"id":"CZ","value":"Czech Republic"},"countryiso3code":"CZE","date":"1983","value":null,"unit":"","obs_status":"","decimal":1},{"indicator":{"id":"GC.DOD.TOTL.GD.ZS","value":"Central government debt, total (% of GDP)"},"country":{"id":"CZ","value":"Czech Republic"},"countryiso3code":"CZE","date":"1982","value":null,"unit":"","obs_status":"","decimal":1},{"indicator":{"id":"GC.DOD.TOTL.GD.ZS","value":"Central government debt, total (% of GDP)"},"country":{"id":"CZ","value":"Czech Republic"},"countryiso3code":"CZE","date":"1981","value":null,"unit":"","obs_status":"","decimal":1},{"indicator":{"id":"GC.DOD.TOTL.GD.ZS","value":"Central government debt, total (% of GDP)"},"country":{"id":"CZ","value":"Czech Republic"},"countryiso3code":"CZE","date":"1980","value":null,"unit":"","obs_status":"","decimal":1},{"indicator":{"id":"GC.DOD.TOTL.GD.ZS","value":"Central government debt, total (% of GDP)"},"country":{"id":"CZ","value":"Czech Republic"},"countryiso3code":"CZE","date":"1979","value":null,"unit":"","obs_status":"","decimal":1},{"indicator":{"id":"GC.DOD.TOTL.GD.ZS","value":"Central government debt, total (% of GDP)"},"country":{"id":"CZ","value":"Czech Republic"},"countryiso3code":"CZE","date":"1978","value":null,"unit":"","obs_status":"","decimal":1},{"indicator":{"id":"GC.DOD.TOTL.GD.ZS","value":"Central government debt, total (% of GDP)"},"country":{"id":"CZ","value":"Czech Republic"},"countryiso3code":"CZE","date":"1977","value":null,"unit":"","obs_status":"","decimal":1},{"indicator":{"id":"GC.DOD.TOTL.GD.ZS","value":"Central government debt, total (% of GDP)"},"country":{"id":"CZ","value":"Czech Republic"},"countryiso3code":"CZE","date":"1976","value":null,"unit":"","obs_status":"","decimal":1},{"indicator":{"id":"GC.DOD.TOTL.GD.ZS","value":"Central government debt, total (% of GDP)"},"country":{"id":"CZ","value":"Czech Republic"},"countryiso3code":"CZE","date":"1975","value":null,"unit":"","obs_status":"","decimal":1},{"indicator":{"id":"GC.DOD.TOTL.GD.ZS","value":"Central government debt, total (% of GDP)"},"country":{"id":"CZ","value":"Czech Republic"},"countryiso3code":"CZE","date":"1974","value":null,"unit":"","obs_status":"","decimal":1},{"indicator":{"id":"GC.DOD.TOTL.GD.ZS","value":"Central government debt, total (% of GDP)"},"country":{"id":"CZ","value":"Czech Republic"},"countryiso3code":"CZE","date":"1973","value":null,"unit":"","obs_status":"","decimal":1},{"indicator":{"id":"GC.DOD.TOTL.GD.ZS","value":"Central government debt, total (% of GDP)"},"country":{"id":"CZ","value":"Czech Republic"},"countryiso3code":"CZE","date":"1972","value":null,"unit":"","obs_status":"","decimal":1},{"indicator":{"id":"GC.DOD.TOTL.GD.ZS","value":"Central government debt, total (% of GDP)"},"country":{"id":"CZ","value":"Czech Republic"},"countryiso3code":"CZE","date":"1971","value":null,"unit":"","obs_status":"","decimal":1}]]